[{
	"id": "premium1",
	"title": "Reconnect to nature con Hervé Barmasse.",
	"description": {
		"value": "<p>L'alpinista professionista Hervé Barmasse in una masterclass alla scoperta del profondo legame che unisce gli esseri umani alla natura.</p>",
		"format": "formatted_text",
		"processed": "<p>L'alpinista professionista Hervé Barmasse in una masterclass alla scoperta del profondo legame che unisce gli esseri umani alla natura.</p>"
	},
	"headerPremium": "Reconnect to nature con Hervé Barmasse.",
	"linkMyAudiPremium": [{
		"uri": "https://streaming.myaudi.it/eventi/barmasse/online",
		"title": "My Audi - Reconnect to nature",
		"options": []
	}],
	"programmeNote": {
		"value": "<p>il programma potrà subire variazioni.</p>",
		"format": "formatted_text",
		"processed": "<p>il programma potrà subire variazioni.</p>"
	},
	"detailedPlan": [{
		"day": "2021-01-16T01:00:00+01:00",
		"activities": [{
				"start": "Venerdì 26 Febbraio",
				"end": "",
				"activity": ""
			},
			{
				"start": "Sabato 27 Febbraio",
				"end": "",
				"activity": ""
			},
			{
				"start": "Domenica 28 Febbraio",
				"end": "",
				"activity": ""
			}
		]
	}],
	"subtitle": "Reconnect to nature",
	"image": {
		"id": "premiumImage1",
		"href": "https://d2sj0xby2hzqoy.cloudfront.net/audi_events/attachments/data/000/000/115/original/background-barmasse-desktop-2-v2.jpg",
		"meta": {
			"alt": "Reconnect to nature con Hervé Barmasse.",
			"title": "Reconnect to nature con Hervé Barmasse.",
			"width": "1920",
			"height": "1080"
		}
	}
}]